(0) Using file: privilege/misalign-jal-01.elf
(0) Text 0x80000000-0x80000813, data 0x80001000-0x80002303
(0) Entry address: 0x80000000
(0) Signature found at 0x80002080...0x80002190
(1) 80000000: 00000097 auipc ra,0
(1)           ra = 80000000
(1)           mip = 00000000
(2) 80000004: 36408093 addi ra,ra,868
(2)           ra = 80000364
(3) 80000008: 000080e7 jalr ra,ra,0
(3)           ra = 8000000c
(4) 80000364: 00002317 auipc t1,8192
(4)           t1 = 80002364
(5) 80000368: c9c30313 addi t1,t1,-868
(5)           t1 = 80002000
(6) 8000036c: 34031373 csrrw t1,mscratch,t1
(6)           t1 = 00000000
(6)           mscratch = 80002000
(7) 80000370: 00002397 auipc t2,8192
(7)           t2 = 80002370
(8) 80000374: cf438393 addi t2,t2,-780
(8)           t2 = 80002064
(9) 80000378: 0063a023 sw t1,0(t2)
(9)           Store [80002064] = 00000000
(11) 8000037c: 34002373 csrrs t1,mscratch,zero
(11)           t1 = 80002000
(11)           mscratch = 80002000
(12) 80000380: 00002397 auipc t2,8192
(12)           t2 = 80002380
(13) 80000384: d0438393 addi t2,t2,-764
(13)           t2 = 80002084
(14) 80000388: 00732023 sw t2,0(t1)
(14)           Store [80002000] = 80002084
(16) 8000038c: 00000317 auipc t1,0
(16)           t1 = 8000038c
(17) 80000390: 08030313 addi t1,t1,128
(17)           t1 = 8000040c
(18) 80000394: 00002e97 auipc t4,8192
(18)           t4 = 80002394
(19) 80000398: cc8e8e93 addi t4,t4,-824
(19)           t4 = 8000205c
(20) 8000039c: 305313f3 csrrw t2,mtvec,t1
(20)           t2 = 00000000
(20)           mtvec = 8000040c
(21) 800003a0: 007ea023 sw t2,0(t4)
(21)           Store [8000205c] = 00000000
(23) 800003a4: 30502e73 csrrs t3,mtvec,zero
(23)           t3 = 8000040c
(23)           mtvec = 8000040c
(24) 800003a8: c66e02e3 beq t3,t1,-924
(25) 8000000c: feedc0b7 lui ra,-17973248
(25)           ra = feedc000
(26) 80000010: ead08093 addi ra,ra,-339
(26)           ra = feedbead
(27) 80000014: ff76e137 lui sp,-8986624
(27)           sp = ff76e000
(28) 80000018: f5610113 addi sp,sp,-170
(28)           sp = ff76df56
(29) 8000001c: 7fbb71b7 lui gp,2142990336
(29)           gp = 7fbb7000
(30) 80000020: fab18193 addi gp,gp,-85
(30)           gp = 7fbb6fab
(31) 80000024: bfddb237 lui tp,-1075990528
(31)           tp = bfddb000
(32) 80000028: 7d520213 addi tp,tp,2005
(32)           tp = bfddb7d5
(33) 8000002c: 00000297 auipc t0,0
(33)           t0 = 8000002c
(34) 80000030: 0d828293 addi t0,t0,216
(34)           t0 = 80000104
(35) 80000034: 00002317 auipc t1,8192
(35)           t1 = 80002034
(36) 80000038: fcc30313 addi t1,t1,-52
(36)           t1 = 80002000
(37) 8000003c: b7fbb3b7 lui t2,-1208242176
(37)           t2 = b7fbb000
(38) 80000040: 6fa38393 addi t2,t2,1786
(38)           t2 = b7fbb6fa
(39) 80000044: 5bfde437 lui s0,1543364608
(39)           s0 = 5bfde000
(40) 80000048: b7d40413 addi s0,s0,-1155
(40)           s0 = 5bfddb7d
(41) 8000004c: adfef4b7 lui s1,-1375801344
(41)           s1 = adfef000
(42) 80000050: dbe48493 addi s1,s1,-578
(42)           s1 = adfeedbe
(43) 80000054: 56ff7537 lui a0,1459580928
(43)           a0 = 56ff7000
(44) 80000058: 6df50513 addi a0,a0,1759
(44)           a0 = 56ff76df
(45) 8000005c: ab7fc5b7 lui a1,-1417691136
(45)           a1 = ab7fc000
(46) 80000060: b6f58593 addi a1,a1,-1169
(46)           a1 = ab7fbb6f
(47) 80000064: d5bfe637 lui a2,-708845568
(47)           a2 = d5bfe000
(48) 80000068: db760613 addi a2,a2,-585
(48)           a2 = d5bfddb7
(49) 8000006c: eadff6b7 lui a3,-354422784
(49)           a3 = eadff000
(50) 80000070: edb68693 addi a3,a3,-293
(50)           a3 = eadfeedb
(51) 80000074: f56ff737 lui a4,-177213440
(51)           a4 = f56ff000
(52) 80000078: 76d70713 addi a4,a4,1901
(52)           a4 = f56ff76d
(53) 8000007c: fab807b7 lui a5,-88604672
(53)           a5 = fab80000
(54) 80000080: bb678793 addi a5,a5,-1098
(54)           a5 = fab7fbb6
(55) 80000084: 7d5c0837 lui a6,2103181312
(55)           a6 = 7d5c0000
(56) 80000088: ddb80813 addi a6,a6,-549
(56)           a6 = 7d5bfddb
(57) 8000008c: beae08b7 lui a7,-1095892992
(57)           a7 = beae0000
(58) 80000090: eed88893 addi a7,a7,-275
(58)           a7 = beadfeed
(59) 80000094: df570937 lui s2,-547946496
(59)           s2 = df570000
(60) 80000098: f7690913 addi s2,s2,-138
(60)           s2 = df56ff76
(61) 8000009c: 6fab89b7 lui s3,1873510400
(61)           s3 = 6fab8000
(62) 800000a0: fbb98993 addi s3,s3,-69
(62)           s3 = 6fab7fbb
(63) 800000a4: b7d5ca37 lui s4,-1210728448
(63)           s4 = b7d5c000
(64) 800000a8: fdda0a13 addi s4,s4,-35
(64)           s4 = b7d5bfdd
(65) 800000ac: dbeaeab7 lui s5,-605364224
(65)           s5 = dbeae000
(66) 800000b0: feea8a93 addi s5,s5,-18
(66)           s5 = dbeadfee
(67) 800000b4: 6df57b37 lui s6,1844801536
(67)           s6 = 6df57000
(68) 800000b8: ff7b0b13 addi s6,s6,-9
(68)           s6 = 6df56ff7
(69) 800000bc: b6fabbb7 lui s7,-1225084928
(69)           s7 = b6fab000
(70) 800000c0: 7fbb8b93 addi s7,s7,2043
(70)           s7 = b6fab7fb
(71) 800000c4: db7d6c37 lui s8,-612540416
(71)           s8 = db7d6000
(72) 800000c8: bfdc0c13 addi s8,s8,-1027
(72)           s8 = db7d5bfd
(73) 800000cc: edbebcb7 lui s9,-306270208
(73)           s9 = edbeb000
(74) 800000d0: dfec8c93 addi s9,s9,-514
(74)           s9 = edbeadfe
(75) 800000d4: 76df5d37 lui s10,1994346496
(75)           s10 = 76df5000
(76) 800000d8: 6ffd0d13 addi s10,s10,1791
(76)           s10 = 76df56ff
(77) 800000dc: bb6fbdb7 lui s11,-1150308352
(77)           s11 = bb6fb000
(78) 800000e0: b7fd8d93 addi s11,s11,-1153
(78)           s11 = bb6fab7f
(79) 800000e4: ddb7de37 lui t3,-575156224
(79)           t3 = ddb7d000
(80) 800000e8: 5bfe0e13 addi t3,t3,1471
(80)           t3 = ddb7d5bf
(81) 800000ec: eedbfeb7 lui t4,-287576064
(81)           t4 = eedbf000
(82) 800000f0: adfe8e93 addi t4,t4,-1313
(82)           t4 = eedbeadf
(83) 800000f4: f76dff37 lui t5,-143790080
(83)           t5 = f76df000
(84) 800000f8: 56ff0f13 addi t5,t5,1391
(84)           t5 = f76df56f
(85) 800000fc: fbb70fb7 lui t6,-71892992
(85)           t6 = fbb70000
(86) 80000100: ab7f8f93 addi t6,t6,-1353
(86)           t6 = fbb6fab7
(87) 80000104: 00002097 auipc ra,8192
(87)           ra = 80002104
(88) 80000108: f7c08093 addi ra,ra,-132
(88)           ra = 80002080
(89) 8000010c: 00000117 auipc sp,0
(89)           sp = 8000010c
(90) 80000110: 02410113 addi sp,sp,36
(90)           sp = 80000130
(91) 80000114: 00010067 jr sp
(92) 80000130: 20a0056f jal a0,522
(92)           a0 = 80000134
(93) 8000033a: 00354513 xori a0,a0,3
(93)           a0 = 80000137
(94) 8000033e: 00000117 auipc sp,0
(94)           sp = 8000033e
(95) 80000342: 00e10113 addi sp,sp,14
(95)           sp = 8000034c
(96) 80000346: 00010067 jr sp
(97) 8000034c: 00000117 auipc sp,0
(97)           sp = 8000034c
(98) 80000350: dc010113 addi sp,sp,-576
(98)           sp = 8000010c
(99) 80000354: ffc17113 andi sp,sp,-4
(99)           sp = 8000010c
(100) 80000358: 40250533 sub a0,a0,sp
(100)           a0 = 0000002b
(101) 8000035c: 00a0a023 sw a0,0(ra)
(101)           Store [80002080] = 0000002b
(103) 80000360: 44c0006f j 1100
(104) 800007ac: 00002e17 auipc t3,8192
(104)           t3 = 800027ac
(105) 800007b0: 8b0e0e13 addi t3,t3,-1872
(105)           t3 = 8000205c
(106) 800007b4: 00002f17 auipc t5,8192
(106)           t5 = 800027b4
(107) 800007b8: 8a8f0f13 addi t5,t5,-1880
(107)           t5 = 8000205c
(108) 800007bc: 008f2303 lw t1,8(t5)
(109)           Load [80002064] = 00000000
(109)           t1 = 00000000
(110) 800007c0: 34031073 csrrw zero,mscratch,t1
(110)           mscratch = 00000000
(111) 800007c4: 000f2e83 lw t4,0(t5)
(112)           Load [8000205c] = 00000000
(112)           t4 = 00000000
(113) 800007c8: 305e93f3 csrrw t2,mtvec,t4
(113)           t2 = 8000040c
(113)           mtvec = 00000000
(114) 800007cc: 007e9e63 bne t4,t2,28
(115) 800007e8: 00408093 addi ra,ra,4
(115)           ra = 80002084
(116) 800007ec: 00100093 addi ra,zero,1
(116)           ra = 00000001
(117) 800007f0: 00001f17 auipc t5,4096
(117)           t5 = 800017f0
(118) 800007f4: 801f2823 sw ra,-2032(t5)
(118)           Store [80001000] = 00000001
(120) 800007f8: 0000006f j 0
(120) Jump to self: infinite loop
(120) Done
   Elapsed time: 0.000567 seconds
   System clock: 120 ticks
      Simulated: 112 instructions
Simulation rate: 212 kHz, 197487 instructions/sec
# data memory reads: 2
# data memory writes: 5
# code memory reads: 113
# code memory writes: 0
# register reads: 74
# register writes: 101
# instructions executed: 112
